Calibration vignette
…
Load and summarize data

# read my plates

plates <- read_tsv("../inst/extdata/Edward_qPCR_Nrd1_calibration_2019-02-02_Ct.txt",
                       skip=1) %>%
    mutate(Well=Pos,Ct=Cp) %>%
    right_join(plate1plan)

plates

## # A tibble: 384 x 20
##    Include Color Pos   Name     Cp Concentration Standard Status Well 
##    <lgl>   <dbl> <chr> <chr> <dbl> <lgl>            <dbl> <lgl>  <chr>
##  1 TRUE      255 A1    Samp  22.8 NA                   0 NA     A1   
##  2 TRUE      255 A2    Samp  24.7 NA                   0 NA     A2   
##  3 TRUE      255 A3    Samp  26.8 NA                   0 NA     A3   
##  4 TRUE      255 A4    Samp  28.6 NA                   0 NA     A4   
##  5 TRUE    65280 A5    Samp  NA   NA                   0 NA     A5   
##  6 TRUE    65280 A6    Samp  NA   NA                   0 NA     A6   
##  7 TRUE      255 A7    Samp  23.2 NA                   0 NA     A7   
##  8 TRUE      255 A8    Samp  24.8 NA                   0 NA     A8   
##  9 TRUE      255 A9    Samp  26.9 NA                   0 NA     A9   
## 10 TRUE    65280 A10   Samp  NA   NA                   0 NA     A10  
## #  with 374 more rows, and 11 more variables: Ct <dbl>, WellR <fct>,
## #   WellC <int>, Dilution <dbl>, DilutionNice <chr>, Type <fct>,
## #   BioRep <fct>, TechRep <fct>, Names <fct>, Probe <fct>, Sample <chr>
…
