Primers and probes calibration vignette • tidyqpcr
…
plates <- 
  file_path_cq %>%
  read_lightcycler_1colour_cq() %>%
  right_join(plate1plan, by = "well")

plates

## # A tibble: 384 × 18
##    include color well  sample_info    cq concentration standard status well_row
##    <lgl>   <int> <chr> <chr>       <dbl>         <dbl>    <int> <lgl>  <fct>   
##  1 TRUE      255 A1    Sample 1     22.8            NA        0 NA     A       
##  2 TRUE      255 A2    Sample 2     24.7            NA        0 NA     A       
##  3 TRUE      255 A3    Sample 3     26.8            NA        0 NA     A       
##  4 TRUE      255 A4    Sample 4     28.6            NA        0 NA     A       
##  5 TRUE    65280 A5    Sample 5     NA              NA        0 NA     A       
##  6 TRUE    65280 A6    Sample 6     NA              NA        0 NA     A       
##  7 TRUE      255 A7    Sample 7     23.2            NA        0 NA     A       
##  8 TRUE      255 A8    Sample 8     24.8            NA        0 NA     A       
##  9 TRUE      255 A9    Sample 9     26.9            NA        0 NA     A       
## 10 TRUE    65280 A10   Sample 10    NA              NA        0 NA     A       
## # … with 374 more rows, and 9 more variables: well_col <fct>, dilution <dbl>,
## #   dilution_nice <chr>, prep_type <fct>, biol_rep <fct>, tech_rep <fct>,
## #   gene_name <fct>, target_id <fct>, sample_id <chr>
…
