Delta Cq 96-well plate qPCR analysis example • tidyqpcr
…
# NOTE: system.file() accesses data from this R package
# To use your own data, remove the call to system.file(),
# instead pass your data's filename to read_tsv()
# or to another relevant read_ function

file_path_cq <- system.file("extdata",
                            "Stuart_dAgr_glyS_spoVG_5S_individualWells_Cq_select.txt.gz",
                            package = "tidyqpcr")

plate_cq_extdata <- file_path_cq %>%
  read_tsv()

plate_cq_extdata

## # A tibble: 90 × 3
##    well  sample_info      cq
##    <chr> <chr>         <dbl>
##  1 A1    WT OD0.5 glyS  14.0
##  2 A2    WT OD0.5 glyS  13.9
##  3 A3    WT OD0.5 glyS  14.0
##  4 A4    WT OD1.5 glyS  14.6
##  5 A5    WT OD1.5 glyS  16.1
##  6 A6    WT OD1.5 glyS  14.4
##  7 A7    WT OD3 glyS    15.6
##  8 A8    WT OD3 glyS    15.6
##  9 A9    WT OD3 glyS    15.5
## 10 A10   WT OD6 glyS    12.8
## # … with 80 more rows
…
plate_cq_data <- 
  create_blank_plate_96well() %>% # row and column labels for each well
  inner_join(plate_cq_extdata) %>% # join that info to loaded data
  # next separate the sample and target information for future data analysis
  separate(sample_info,
           into = c("strain","OD","target_id"), 
           sep = " ",
           remove = FALSE) %>%
  unite("sample_id",strain, OD, remove = FALSE) %>% # put sample_id together
  mutate(prep_type = "+RT") # add information on cDNA prep type

plate_cq_data

## # A tibble: 90 × 10
##    well  well_row well_col sample_info   sample_id strain OD    target_id    cq
##    <chr> <fct>    <fct>    <chr>         <chr>     <chr>  <chr> <chr>     <dbl>
##  1 A1    A        1        WT OD0.5 glyS WT_OD0.5  WT     OD0.5 glyS       14.0
##  2 A2    A        2        WT OD0.5 glyS WT_OD0.5  WT     OD0.5 glyS       13.9
##  3 A3    A        3        WT OD0.5 glyS WT_OD0.5  WT     OD0.5 glyS       14.0
##  4 A4    A        4        WT OD1.5 glyS WT_OD1.5  WT     OD1.5 glyS       14.6
##  5 A5    A        5        WT OD1.5 glyS WT_OD1.5  WT     OD1.5 glyS       16.1
##  6 A6    A        6        WT OD1.5 glyS WT_OD1.5  WT     OD1.5 glyS       14.4
##  7 A7    A        7        WT OD3 glyS   WT_OD3    WT     OD3   glyS       15.6
##  8 A8    A        8        WT OD3 glyS   WT_OD3    WT     OD3   glyS       15.6
##  9 A9    A        9        WT OD3 glyS   WT_OD3    WT     OD3   glyS       15.5
## 10 A10   A        10       WT OD6 glyS   WT_OD6    WT     OD6   glyS       12.8
## # … with 80 more rows, and 1 more variable: prep_type <chr>
…
Then the function will subtract that value from the Cq for every other measured gene, again separately for each sample, adding a delta_cq column to its output data

The function also calculates relative abundance or normalized ratio to the reference targets, , adding a rel_abund column to its output data.

If you use multiple reference target ids, the function will take the median across Cq values of all the reference target ids. You can also ask the function to use a different summary, e.g. mean instead of median. See the help file ?calculate_deltacq_bysampleid for more details.

As ever, we print the data to screen as a sanity check.

plate_norm <- plate_cq_data %>%
  calculate_deltacq_bysampleid(ref_target_ids = "5S")

plate_norm

## # A tibble: 90 × 13
##    well  well_row well_col sample_info    sample_id strain OD    target_id    cq
##    <chr> <fct>    <fct>    <chr>          <chr>     <chr>  <chr> <chr>     <dbl>
##  1 E1    E        1        dAgr OD0.5 gl… dAgr_OD0… dAgr   OD0.5 glyS      13.9 
##  2 E2    E        2        dAgr OD0.5 gl… dAgr_OD0… dAgr   OD0.5 glyS      13.9 
##  3 E3    E        3        dAgr OD0.5 gl… dAgr_OD0… dAgr   OD0.5 glyS      14   
##  4 F4    F        4        dAgr OD0.5 sp… dAgr_OD0… dAgr   OD0.5 spoVG     13.6 
##  5 F5    F        5        dAgr OD0.5 sp… dAgr_OD0… dAgr   OD0.5 spoVG     13.6 
##  6 F6    F        6        dAgr OD0.5 sp… dAgr_OD0… dAgr   OD0.5 spoVG     13.5 
##  7 G7    G        7        dAgr OD0.5 5S  dAgr_OD0… dAgr   OD0.5 5S         5.15
##  8 G8    G        8        dAgr OD0.5 5S  dAgr_OD0… dAgr   OD0.5 5S         5.1 
##  9 G9    G        9        dAgr OD0.5 5S  dAgr_OD0… dAgr   OD0.5 5S         5.12
## 10 E4    E        4        dAgr OD1.5 gl… dAgr_OD1… dAgr   OD1.5 glyS      14.6 
## # … with 80 more rows, and 4 more variables: prep_type <chr>, ref_cq <dbl>,
## #   delta_cq <dbl>, rel_abund <dbl>
…
Calculate a summary value for each sample-target combination

Having made normalized values, we use group_by and summarize from the dplyr package to calculate the median values of delta_cq and rel_abund for each sample. This makes a smaller table by collapsing 3 technical replicates into a single summary value for each sample_id-target_id combination.

plate_med <- plate_norm %>%
  group_by(sample_id, strain, OD, target_id) %>%
  summarize(
    delta_cq  = median(delta_cq, na.rm = TRUE),
    rel_abund = median(rel_abund, na.rm = TRUE)
  )

plate_med

## # A tibble: 30 × 6
## # Groups:   sample_id, strain, OD [10]
##    sample_id  strain OD    target_id delta_cq rel_abund
##    <chr>      <chr>  <chr> <chr>        <dbl>     <dbl>
##  1 dAgr_OD0.5 dAgr   OD0.5 5S            0     1       
##  2 dAgr_OD0.5 dAgr   OD0.5 glyS          8.82  0.00221 
##  3 dAgr_OD0.5 dAgr   OD0.5 spoVG         8.46  0.00284 
##  4 dAgr_OD1.5 dAgr   OD1.5 5S            0     1       
##  5 dAgr_OD1.5 dAgr   OD1.5 glyS          9.64  0.00125 
##  6 dAgr_OD1.5 dAgr   OD1.5 spoVG         7.74  0.00468 
##  7 dAgr_OD3   dAgr   OD3   5S            0     1       
##  8 dAgr_OD3   dAgr   OD3   glyS         10.8   0.000577
##  9 dAgr_OD3   dAgr   OD3   spoVG         7.93  0.00410 
## 10 dAgr_OD6   dAgr   OD6   5S            0     1       
## # … with 20 more rows
…
If you use multiple reference sample ids, the function will take the median across Cq values of all the reference target ids. For example, you might use multiple biological replicate samples of a single set of conditions. You can also ask the function to use a different summary, e.g. mean instead of median. See the help file ?calculate_deltadeltacq_bytargetid for more details.

plate_deltanorm <- plate_norm %>%
  calculate_deltadeltacq_bytargetid(ref_sample_ids = "WT_OD0.5")

plate_deltanorm_med <- plate_deltanorm %>%
    group_by(sample_id, strain, OD, target_id) %>%
  summarize(
    deltadelta_cq  = median(deltadelta_cq, na.rm = TRUE),
    fold_change    = median(fold_change,   na.rm = TRUE)
  )

plate_deltanorm

## # A tibble: 90 × 16
##    well  well_row well_col sample_info   sample_id  strain OD    target_id    cq
##    <chr> <fct>    <fct>    <chr>         <chr>      <chr>  <chr> <chr>     <dbl>
##  1 G7    G        7        dAgr OD0.5 5S dAgr_OD0.5 dAgr   OD0.5 5S         5.15
##  2 G8    G        8        dAgr OD0.5 5S dAgr_OD0.5 dAgr   OD0.5 5S         5.1 
##  3 G9    G        9        dAgr OD0.5 5S dAgr_OD0.5 dAgr   OD0.5 5S         5.12
##  4 G10   G        10       dAgr OD1.5 5S dAgr_OD1.5 dAgr   OD1.5 5S         5.01
##  5 G11   G        11       dAgr OD1.5 5S dAgr_OD1.5 dAgr   OD1.5 5S         4.93
##  6 G12   G        12       dAgr OD1.5 5S dAgr_OD1.5 dAgr   OD1.5 5S         4.82
##  7 H1    H        1        dAgr OD3 5S   dAgr_OD3   dAgr   OD3   5S         4.98
##  8 H2    H        2        dAgr OD3 5S   dAgr_OD3   dAgr   OD3   5S         4.85
##  9 H3    H        3        dAgr OD3 5S   dAgr_OD3   dAgr   OD3   5S         4.83
## 10 H4    H        4        dAgr OD6 5S   dAgr_OD6   dAgr   OD6   5S         4.76
## # … with 80 more rows, and 7 more variables: prep_type <chr>, ref_cq <dbl>,
## #   delta_cq <dbl>, rel_abund <dbl>, ref_delta_cq <dbl>, deltadelta_cq <dbl>,
## #   fold_change <dbl>

plate_deltanorm_med

## # A tibble: 30 × 6
## # Groups:   sample_id, strain, OD [10]
##    sample_id  strain OD    target_id deltadelta_cq fold_change
##    <chr>      <chr>  <chr> <chr>             <dbl>       <dbl>
##  1 dAgr_OD0.5 dAgr   OD0.5 5S                0           1    
##  2 dAgr_OD0.5 dAgr   OD0.5 glyS              0.170       1.13 
##  3 dAgr_OD0.5 dAgr   OD0.5 spoVG             0.170       1.13 
##  4 dAgr_OD1.5 dAgr   OD1.5 5S                0           1    
##  5 dAgr_OD1.5 dAgr   OD1.5 glyS             -0.650       0.637
##  6 dAgr_OD1.5 dAgr   OD1.5 spoVG             0.890       1.85 
##  7 dAgr_OD3   dAgr   OD3   5S                0           1    
##  8 dAgr_OD3   dAgr   OD3   glyS             -1.77        0.293
##  9 dAgr_OD3   dAgr   OD3   spoVG             0.700       1.62 
## 10 dAgr_OD6   dAgr   OD6   5S                0           1    
## # … with 20 more rows
…
