Introduction to designing an experiment and setting up a plate plan in tidyqpcr • tidyqpcr
…
Putting the 48-well sample together

plate_plan48 <- label_plate_rowcol(
  plate = create_blank_plate(well_row = LETTERS[1:4], well_col = 1:12),
  rowkey = rowkey4,
  colkey = colkey12
)

print(plate_plan48)

## # A tibble: 48 × 6
##    well  well_row well_col sample_id prep_type target_id
##    <chr> <fct>    <fct>    <chr>     <chr>     <chr>    
##  1 A1    A        1        rep1      +RT       ACT1     
##  2 A2    A        2        rep2      +RT       ACT1     
##  3 A3    A        3        rep3      +RT       ACT1     
##  4 A4    A        4        rep1      +RT       ACT1     
##  5 A5    A        5        rep2      +RT       ACT1     
##  6 A6    A        6        rep3      +RT       ACT1     
##  7 A7    A        7        rep1      +RT       ACT1     
##  8 A8    A        8        rep2      +RT       ACT1     
##  9 A9    A        9        rep3      +RT       ACT1     
## 10 A10   A        10       rep1      -RT       ACT1     
## # … with 38 more rows
…
Combining information into a larger plate plan

Now we put this together into a plan for the whole 96-well plate:

plate_plan96_take1 <- label_plate_rowcol(
  plate = create_blank_plate(well_row = LETTERS[1:8], well_col = 1:12),
  rowkey = rowkey8,
  colkey = colkey12_twocondition
)

print(plate_plan96_take1)

## # A tibble: 96 × 7
##    well  well_row well_col biol_rep prep_type target_id condition
##    <chr> <fct>    <fct>    <chr>    <chr>     <chr>     <chr>    
##  1 A1    A        1        rep1     +RT       ACT1      Ctrl     
##  2 A2    A        2        rep2     +RT       ACT1      Ctrl     
##  3 A3    A        3        rep3     +RT       ACT1      Ctrl     
##  4 A4    A        4        rep1     +RT       ACT1      Ctrl     
##  5 A5    A        5        rep2     +RT       ACT1      Ctrl     
##  6 A6    A        6        rep3     +RT       ACT1      Ctrl     
##  7 A7    A        7        rep1     +RT       ACT1      Ctrl     
##  8 A8    A        8        rep2     +RT       ACT1      Ctrl     
##  9 A9    A        9        rep3     +RT       ACT1      Ctrl     
## 10 A10   A        10       rep1     -RT       ACT1      Ctrl     
## # … with 86 more rows
…
plate_plan96 <- label_plate_rowcol(
  plate = create_blank_plate(well_row = LETTERS[1:8], well_col = 1:12),
  rowkey = rowkey8,
  colkey = colkey12_twocondition
) %>%
  unite(sample_id, condition, biol_rep, remove = FALSE)

print(plate_plan96)

## # A tibble: 96 × 8
##    well  well_row well_col sample_id biol_rep prep_type target_id condition
##    <chr> <fct>    <fct>    <chr>     <chr>    <chr>     <chr>     <chr>    
##  1 A1    A        1        Ctrl_rep1 rep1     +RT       ACT1      Ctrl     
##  2 A2    A        2        Ctrl_rep2 rep2     +RT       ACT1      Ctrl     
##  3 A3    A        3        Ctrl_rep3 rep3     +RT       ACT1      Ctrl     
##  4 A4    A        4        Ctrl_rep1 rep1     +RT       ACT1      Ctrl     
##  5 A5    A        5        Ctrl_rep2 rep2     +RT       ACT1      Ctrl     
##  6 A6    A        6        Ctrl_rep3 rep3     +RT       ACT1      Ctrl     
##  7 A7    A        7        Ctrl_rep1 rep1     +RT       ACT1      Ctrl     
##  8 A8    A        8        Ctrl_rep2 rep2     +RT       ACT1      Ctrl     
##  9 A9    A        9        Ctrl_rep3 rep3     +RT       ACT1      Ctrl     
## 10 A10   A        10       Ctrl_rep1 rep1     -RT       ACT1      Ctrl     
## # … with 86 more rows
…
