Create a blank plate template as a tibble — create_blank_plate • tidyqpcr
…
    Examples

create_blank_plate(well_row=LETTERS[1:2],well_col=1:3)
#> # A tibble: 6 x 3
#>   well  well_row well_col
#>   <chr> <fct>    <fct>   
#> 1 A1    A        1       
#> 2 A2    A        2       
#> 3 A3    A        3       
#> 4 B1    B        1       
#> 5 B2    B        2       
#> 6 B3    B        3       
create_blank_plate_96well()
#> # A tibble: 96 x 3
#>    well  well_row well_col
#>    <chr> <fct>    <fct>   
#>  1 A1    A        1       
#>  2 A2    A        2       
#>  3 A3    A        3       
#>  4 A4    A        4       
#>  5 A5    A        5       
#>  6 A6    A        6       
#>  7 A7    A        7       
#>  8 A8    A        8       
#>  9 A9    A        9       
#> 10 A10   A        10      
#> # … with 86 more rows
…
