Label a plate with sample and probe information — label_plate_rowcol • tidyqpcr
…
    Examples

label_plate_rowcol(plate = create_blank_plate()) # returns blank plate
#> plate does not contain variable sample_id
#> plate does not have variable target_id
#> plate does not have variable prep_type
#> # A tibble: 384 × 3
#>    well  well_row well_col
#>    <chr> <fct>    <fct>   
#>  1 A1    A        1       
#>  2 A2    A        2       
#>  3 A3    A        3       
#>  4 A4    A        4       
#>  5 A5    A        5       
#>  6 A6    A        6       
#>  7 A7    A        7       
#>  8 A8    A        8       
#>  9 A9    A        9       
#> 10 A10   A        10      
#> # … with 374 more rows

# label blank 96-well plate with empty edge wells

label_plate_rowcol(plate = create_blank_plate(well_row = LETTERS[2:7], 
                                              well_col = 2:11))
#> plate does not contain variable sample_id
#> plate does not have variable target_id
#> plate does not have variable prep_type
#> # A tibble: 60 × 3
#>    well  well_row well_col
#>    <chr> <fct>    <fct>   
#>  1 B2    B        2       
#>  2 B3    B        3       
#>  3 B4    B        4       
#>  4 B5    B        5       
#>  5 B6    B        6       
#>  6 B7    B        7       
#>  7 B8    B        8       
#>  8 B9    B        9       
#>  9 B10   B        10      
#> 10 B11   B        11      
#> # … with 50 more rows

# label 96-well plate with sample id in rows

label_plate_rowcol(plate = create_blank_plate(well_row = LETTERS[1:8],
                                              well_col = 1:12),
                   rowkey = tibble(well_row = LETTERS[1:8],
                                   sample_id = paste0("S_",1:8)))
#> coercing well_row to a factor with levels from plate$well_row
#> plate does not have variable target_id
#> plate does not have variable prep_type
#> # A tibble: 96 × 4
#>    well  well_row well_col sample_id
#>    <chr> <fct>    <fct>    <chr>    
#>  1 A1    A        1        S_1      
#>  2 A2    A        2        S_1      
#>  3 A3    A        3        S_1      
#>  4 A4    A        4        S_1      
#>  5 A5    A        5        S_1      
#>  6 A6    A        6        S_1      
#>  7 A7    A        7        S_1      
#>  8 A8    A        8        S_1      
#>  9 A9    A        9        S_1      
#> 10 A10   A        10       S_1      
#> # … with 86 more rows

# label fraction of 96-well plate with target id in columns

label_plate_rowcol(plate = create_blank_plate(well_row = LETTERS[1:8],
                                              well_col = 1:4),
                   colkey = tibble(well_col = 1:4,
                                   target_id = paste0("T_",1:4)))
#> coercing well_col to a factor with levels from plate$well_col
#> plate does not contain variable sample_id
#> plate does not have variable prep_type
#> # A tibble: 32 × 4
#>    well  well_row well_col target_id
#>    <chr> <fct>    <fct>    <chr>    
#>  1 A1    A        1        T_1      
#>  2 A2    A        2        T_2      
#>  3 A3    A        3        T_3      
#>  4 A4    A        4        T_4      
#>  5 B1    B        1        T_1      
#>  6 B2    B        2        T_2      
#>  7 B3    B        3        T_3      
#>  8 B4    B        4        T_4      
#>  9 C1    C        1        T_1      
#> 10 C2    C        2        T_2      
#> # … with 22 more rows
…
