Reads raw text-format fluorescence data in 1 colour from Roche Lightcyclers — read_lightcycler_1colour_raw • tidyqpcr
…
    Details

    This function is a thin wrapper around readr::read_tsv.

    See also

    read_lightcycler_1colour_cq

    Examples

read_lightcycler_1colour_raw(system.file("extdata/Edward_qPCR_Nrd1_calibration_2019-02-02.txt.gz", 
                                                 package = "tidyqpcr"))
#> # A tibble: 82,944 × 8
#>    well  sample_info program_no segment_no cycle   time temperature fluor_raw
#>    <chr> <chr>       <fct>      <fct>      <int>  <dbl>       <dbl>     <dbl>
#>  1 A1    Sample 1    2          2              1 234700        59.9      0.59
#>  2 A1    Sample 1    2          2              2 274117        59.8      0.57
#>  3 A1    Sample 1    2          2              3 313634        59.8      0.56
#>  4 A1    Sample 1    2          2              4 353100        59.8      0.56
#>  5 A1    Sample 1    2          2              5 392600        59.8      0.56
#>  6 A1    Sample 1    2          2              6 432234        59.8      0.56
#>  7 A1    Sample 1    2          2              7 471801        59.8      0.55
#>  8 A1    Sample 1    2          2              8 511334        59.8      0.55
#>  9 A1    Sample 1    2          2              9 550834        59.8      0.55
#> 10 A1    Sample 1    2          2             10 590417        59.8      0.54
#> # … with 82,934 more rows
…
